%YAML 1.1
%TAG !u! tag:unity3d.com,2011:
--- !u!114 &11400000
MonoBehaviour:
  m_ObjectHideFlags: 0
  m_CorrespondingSourceObject: {fileID: 0}
  m_PrefabInstance: {fileID: 0}
  m_PrefabAsset: {fileID: 0}
  m_GameObject: {fileID: 0}
  m_Enabled: 1
  m_EditorHideFlags: 0
  m_Script: {fileID: 11500000, guid: 8c10fe16899a282479406ca9696eae85, type: 3}
  m_Name: C_PlayerVehicles
  m_EditorClassIdentifier: 
  vehicles:
  - carController: {fileID: 7503983540959575230, guid: 35f0bf509b9824d49afca39106938af5,
      type: 3}
    price: 0
  - carController: {fileID: 906791778851762001, guid: e5aff10b0fdf018478ad148513e2a0a0,
      type: 3}
    price: 25000
  - carController: {fileID: 8446963473589977752, guid: 6b2a34d797818404eb3ac36564affb53,
      type: 3}
    price: 50000
  - carController: {fileID: 5386301891519065941, guid: 3f0bf4a50ceead248a0d4aeaae4bf787,
      type: 3}
    price: 75000
  - carController: {fileID: 7300860271853700852, guid: 7a80b7a7d5699614cb41a76d4e632a18,
      type: 3}
    price: 100000
  - carController: {fileID: 2226952965395860263, guid: 916bc5eacdd4ce643a221da13d23a2e0,
      type: 3}
    price: 75000
  - carController: {fileID: 3940399581586746993, guid: 69bb7eb311639044ea0d4aba874bf428,
      type: 3}
    price: 0
  - carController: {fileID: 9117040502207232042, guid: b532df6feb686074f8fa14a319f20ee7,
      type: 3}
    price: 0
  - carController: {fileID: 8129782142858025368, guid: 12d7eb847a4f9074886eb6a45cce4b75,
      type: 3}
    price: 0
  - carController: {fileID: 4502717913997948026, guid: 5037d3be62175d542acca16a18bd14b0,
      type: 3}
    price: 0
  - carController: {fileID: 906791778851762001, guid: e5aff10b0fdf018478ad148513e2a0a0,
      type: 3}
    price: 0
  - carController: {fileID: 9115983604782433032, guid: 186f4fbc04c6b944287202f375998136,
      type: 3}
    price: 0
  - carController: {fileID: 5361970840412224121, guid: b41e283bcc7ad3c42b68e2c38b7f4f0b,
      type: 3}
    price: 0
  - carController: {fileID: 3302192279406150061, guid: 12a1f3c0030327141b227132e1e0124f,
      type: 3}
    price: 0
  - carController: {fileID: 9173406346139311750, guid: 738a907effce0e644918a5a6828703f1,
      type: 3}
    price: 0
  - carController: {fileID: 8446963473589977752, guid: 6b2a34d797818404eb3ac36564affb53,
      type: 3}
    price: 0
  - carController: {fileID: 5386301891519065941, guid: 3f0bf4a50ceead248a0d4aeaae4bf787,
      type: 3}
    price: 0
